<?xml version="1.0" standalone="no"?>
<!DOCTYPE svg PUBLIC "-//W3C//DTD SVG 20010904//EN"
 "http://www.w3.org/TR/2001/REC-SVG-20010904/DTD/svg10.dtd">
<svg version="1.0" xmlns="http://www.w3.org/2000/svg"
 width="300.000000pt" height="163.000000pt" viewBox="0 0 300.000000 163.000000"
 preserveAspectRatio="xMidYMid meet">
<metadata>
Created by potrace 1.16, written by Peter Selinger 2001-2019
</metadata>
<g transform="translate(0.000000,163.000000) scale(0.100000,-0.100000)"
fill="#000000" stroke="none">
<path d="M821 1446 c-324 -194 -382 -240 -429 -338 -99 -204 18 -449 256 -538
66 -25 177 -28 237 -7 22 8 163 89 314 181 150 92 276 168 280 169 4 1 130
-73 281 -164 330 -200 309 -188 373 -199 167 -26 357 80 438 247 31 61 34 76
34 158 0 79 -3 97 -29 150 -51 103 -104 145 -431 339 -164 99 -306 181 -315
183 -8 2 -91 -41 -184 -95 l-168 -99 -166 98 c-92 55 -171 99 -177 98 -5 0
-147 -83 -314 -183z m422 -31 c53 -32 97 -59 97 -60 0 -2 -129 -79 -287 -170
-159 -92 -298 -177 -310 -188 -32 -28 -30 -70 3 -96 15 -12 34 -21 42 -21 9 0
246 134 526 298 281 163 514 296 519 294 5 -1 126 -73 270 -159 293 -174 337
-211 362 -297 34 -117 -32 -244 -161 -307 -66 -32 -163 -33 -214 -3 -19 12
-135 82 -256 156 l-222 134 101 61 100 60 187 -113 c214 -130 246 -139 279
-77 23 45 -1 67 -237 209 -123 74 -230 133 -236 131 -7 -3 -214 -127 -461
-277 -248 -150 -463 -280 -479 -288 -136 -70 -350 57 -372 221 -4 28 -1 65 6
93 23 82 72 122 365 298 149 90 272 162 275 161 3 -1 49 -28 103 -60z"/>
<path d="M0 261 c0 -148 1 -160 23 -192 32 -49 79 -69 161 -69 80 0 132 23
162 73 16 27 20 56 22 190 l4 157 -61 0 -61 0 0 -124 c0 -139 -10 -183 -46
-192 -75 -19 -94 20 -94 199 l0 117 -55 0 -55 0 0 -159z"/>
<path d="M2240 335 c0 -33 -4 -45 -15 -45 -11 0 -15 -12 -15 -45 0 -33 4 -45
15 -45 12 0 15 -17 15 -95 l0 -95 55 0 55 0 0 95 0 95 29 0 c28 0 29 -2 33
-60 7 -92 61 -140 160 -140 65 0 116 25 142 70 l19 32 -59 -5 c-32 -3 -74 -8
-92 -12 -34 -8 -62 6 -62 31 0 11 23 14 106 14 l107 0 -6 40 c-11 82 -68 130
-155 130 -61 0 -99 -17 -136 -60 l-26 -32 0 41 c0 39 -2 41 -30 41 -29 0 -30
2 -30 45 l0 45 -55 0 -55 0 0 -45z"/>
<path d="M567 293 c-4 -3 -38 -5 -77 -4 l-70 2 0 -140 0 -141 60 0 59 0 3 98
3 97 35 0 35 0 3 -97 3 -98 54 0 55 0 0 116 c0 114 0 116 -29 145 -25 24 -38
29 -79 29 -27 0 -52 -3 -55 -7z"/>
<path d="M1097 293 c-4 -3 -38 -5 -77 -4 l-70 2 0 -140 0 -141 60 0 59 0 3 98
3 97 30 0 30 0 3 -97 3 -98 59 0 59 0 3 98 3 97 30 0 30 0 3 -97 3 -98 59 0
60 0 0 93 c0 108 -12 161 -43 182 -30 21 -96 19 -131 -4 -29 -19 -30 -19 -54
0 -24 19 -110 27 -125 12z"/>
<path d="M1557 279 c-73 -39 -100 -136 -57 -206 41 -68 171 -96 250 -54 107
56 108 206 1 261 -53 27 -142 26 -194 -1z"/>
<path d="M2006 293 c-4 -4 -36 -6 -72 -4 l-64 3 0 -141 0 -141 55 0 55 0 0 88
c0 48 4 93 9 100 5 8 21 12 37 10 l29 -3 3 -97 3 -98 54 0 55 0 0 116 c0 114
0 116 -29 145 -25 24 -38 29 -79 29 -27 0 -52 -3 -56 -7z"/>
<path d="M2818 285 c-34 -19 -48 -44 -48 -88 0 -40 20 -61 74 -79 21 -7 38
-17 37 -23 0 -17 -29 -17 -63 -1 -17 9 -32 15 -33 14 -6 -7 -35 -68 -35 -72 0
-15 65 -36 109 -36 91 0 141 34 141 98 0 52 -23 80 -76 93 -56 14 -58 32 -3
27 38 -3 42 -1 57 29 9 18 12 36 8 40 -15 15 -140 14 -168 -2z"/>
<path d="M790 150 l0 -140 55 0 55 0 0 140 0 140 -55 0 -55 0 0 -140z"/>
</g>
</svg>
